{
  "extras": [
    "lazyvim.plugins.extras.coding.copilot",
    "lazyvim.plugins.extras.coding.mini-surround",
    "lazyvim.plugins.extras.dap.core",
    "lazyvim.plugins.extras.editor.refactoring",
    "lazyvim.plugins.extras.formatting.prettier",
    "lazyvim.plugins.extras.lang.docker",
    "lazyvim.plugins.extras.lang.gleam",
    "lazyvim.plugins.extras.lang.haskell",
    "lazyvim.plugins.extras.lang.java",
    "lazyvim.plugins.extras.lang.kotlin",
    "lazyvim.plugins.extras.lang.markdown",
    "lazyvim.plugins.extras.lang.nix",
    "lazyvim.plugins.extras.lang.tailwind",
    "lazyvim.plugins.extras.lang.toml",
    "lazyvim.plugins.extras.lang.typescript",
    "lazyvim.plugins.extras.test.core",
    "lazyvim.plugins.extras.util.startuptime"
  ],
  "news": {
    "NEWS.md": "6520"
  },
  "version": 6
}