{
  "FixCursorHold.nvim": { "branch": "master", "commit": "1900f89dc17c603eec29960f57c00bd9ae696495" },
  "LazyVim": { "branch": "main", "commit": "13a4a84e3485a36e64055365665a45dc82b6bf71" },
  "LuaSnip": { "branch": "master", "commit": "c9b9a22904c97d0eb69ccb9bab76037838326817" },
  "bufferline.nvim": { "branch": "main", "commit": "655133c3b4c3e5e05ec549b9f8cc2894ac6f51b3" },
  "catppuccin": { "branch": "main", "commit": "0b2437bcc12b4021614dc41fcea9d0f136d94063" },
  "cmp-buffer": { "branch": "main", "commit": "3022dbc9166796b644a841a02de8dd1cc1d311fa" },
  "cmp-nvim-lsp": { "branch": "main", "commit": "99290b3ec1322070bcfb9e846450a46f6efa50f0" },
  "cmp-path": { "branch": "main", "commit": "91ff86cd9c29299a64f968ebb45846c485725f23" },
  "conform.nvim": { "branch": "master", "commit": "8ed162b0637d4c4f69ebe3e8e49b35662a82e137" },
  "copilot-cmp": { "branch": "master", "commit": "15fc12af3d0109fa76b60b5cffa1373697e261d1" },
  "copilot.lua": { "branch": "master", "commit": "30321e33b03cb924fdcd6a806a0dc6fa0b0eafb9" },
  "dashboard-nvim": { "branch": "master", "commit": "d2c5a4d1341f5ca1ed2ecb4ecfcff2bc8ea18b14" },
  "dressing.nvim": { "branch": "master", "commit": "2d7c2db2507fa3c4956142ee607431ddb2828639" },
  "flash.nvim": { "branch": "main", "commit": "3c942666f115e2811e959eabbdd361a025db8b63" },
  "friendly-snippets": { "branch": "main", "commit": "efff286dd74c22f731cdec26a70b46e5b203c619" },
  "gitsigns.nvim": { "branch": "main", "commit": "8b00147519d6f8353867d5d0b55f587306b0cfb6" },
  "grug-far.nvim": { "branch": "main", "commit": "3a8690461afac34c0e5bacb0f7b4bc3066aab665" },
  "gruvbox.nvim": { "branch": "main", "commit": "089b60e92aa0a1c6fa76ff527837cd35b6f5ac81" },
  "haskell-snippets.nvim": { "branch": "master", "commit": "bd893770dd7a0c1a473601c3c919e61670745b36" },
  "haskell-tools.nvim": { "branch": "master", "commit": "65d6993eba1a56bbd5211ef13a100d26ce3e644a" },
  "indent-blankline.nvim": { "branch": "master", "commit": "e10626f7fcd51ccd56d7ffc00883ba7e0aa28f78" },
  "lazy.nvim": { "branch": "main", "commit": "7e6c863bc7563efbdd757a310d17ebc95166cef3" },
  "lazydev.nvim": { "branch": "main", "commit": "a1b78b2ac6f978c72e76ea90ae92a94edf380cfc" },
  "lualine.nvim": { "branch": "master", "commit": "f4f791f67e70d378a754d02da068231d2352e5bc" },
  "luvit-meta": { "branch": "main", "commit": "1df30b60b1b4aecfebc785aa98943db6c6989716" },
  "markdown-preview.nvim": { "branch": "master", "commit": "a923f5fc5ba36a3b17e289dc35dc17f66d0548ee" },
  "mason-lspconfig.nvim": { "branch": "main", "commit": "a8e6efcf623b86bae6d2223eede7c43883329f80" },
  "mason-nvim-dap.nvim": { "branch": "main", "commit": "26ea08fd5c7028ea54a3347ac139fc916baf1aa9" },
  "mason.nvim": { "branch": "main", "commit": "e2f7f9044ec30067bc11800a9e266664b88cda22" },
  "mini.ai": { "branch": "main", "commit": "6e01c0e5a15554852546fac9853960780ac52ed4" },
  "mini.icons": { "branch": "main", "commit": "ec61af6e606fc89ee3b1d8f2f20166a3ca917a36" },
  "mini.pairs": { "branch": "main", "commit": "1a3e73649c0eaef2f6c48ce1e761c6f0a7c11918" },
  "mini.surround": { "branch": "main", "commit": "f90069c7441a5fb04c3de42eacf93e16b64dd3eb" },
  "neo-tree.nvim": { "branch": "main", "commit": "e96fd85bf18bc345dab332b345098fa5460dffac" },
  "neotest": { "branch": "master", "commit": "6d3d22cdad49999ef774ebe1bc250a4994038964" },
  "neotest-haskell": { "branch": "master", "commit": "0a487915ef5fa317e620766f3505d900d2bdd07f" },
  "neotest-java": { "branch": "main", "commit": "800393067cf97b0f20eb0a3e61506cc6ffc76128" },
  "noice.nvim": { "branch": "main", "commit": "0427460c2d7f673ad60eb02b35f5e9926cf67c59" },
  "nui.nvim": { "branch": "main", "commit": "53e907ffe5eedebdca1cd503b00aa8692068ca46" },
  "nvim-cmp": { "branch": "main", "commit": "12509903a5723a876abd65953109f926f4634c30" },
  "nvim-dap": { "branch": "master", "commit": "52302f02fea3a490e55475de52fa4deb8af2eb11" },
  "nvim-dap-ui": { "branch": "master", "commit": "bc81f8d3440aede116f821114547a476b082b319" },
  "nvim-dap-virtual-text": { "branch": "master", "commit": "df66808cd78b5a97576bbaeee95ed5ca385a9750" },
  "nvim-jdtls": { "branch": "master", "commit": "2f7bff9b8d2ee1918b36ca55f19547d9d335a268" },
  "nvim-lint": { "branch": "master", "commit": "6e9dd545a1af204c4022a8fcd99727ea41ffdcc8" },
  "nvim-lspconfig": { "branch": "master", "commit": "7af2c37192deae28d1305ae9e68544f7fb5408e1" },
  "nvim-nio": { "branch": "master", "commit": "a428f309119086dc78dd4b19306d2d67be884eee" },
  "nvim-notify": { "branch": "master", "commit": "22f29093eae7785773ee9d543f8750348b1a195c" },
  "nvim-snippets": { "branch": "main", "commit": "56b4052f71220144689caaa2e5b66222ba5661eb" },
  "nvim-treesitter": { "branch": "master", "commit": "18cf02f5efe677d992fe7f96f395ef40a2f329d2" },
  "nvim-treesitter-textobjects": { "branch": "master", "commit": "ad8f0a472148c3e0ae9851e26a722ee4e29b1595" },
  "nvim-ts-autotag": { "branch": "main", "commit": "4c00b86bd1246ba9c4cd50a823d8296cd2eb9663" },
  "persistence.nvim": { "branch": "main", "commit": "f6aad7dde7fcf54148ccfc5f622c6d5badd0cc3d" },
  "plenary.nvim": { "branch": "master", "commit": "2d9b06177a975543726ce5c73fca176cedbffe9d" },
  "refactoring.nvim": { "branch": "master", "commit": "2db6d378e873de31d18ade549c2edba64ff1c2e3" },
  "render-markdown.nvim": { "branch": "main", "commit": "e05a9f22f31c088ece3fa5928daf546a015b66ee" },
  "tailwindcss-colorizer-cmp.nvim": { "branch": "main", "commit": "3d3cd95e4a4135c250faf83dd5ed61b8e5502b86" },
  "telescope-fzf-native.nvim": { "branch": "main", "commit": "2a5ceff981501cff8f46871d5402cd3378a8ab6a" },
  "telescope.nvim": { "branch": "master", "commit": "78857db9e8d819d3cc1a9a7bdc1d39d127a36495" },
  "telescope_hoogle": { "branch": "master", "commit": "5c2ae51bcf905a7101134a597e6f7be2dc05f975" },
  "todo-comments.nvim": { "branch": "main", "commit": "304a8d204ee787d2544d8bc23cd38d2f929e7cc5" },
  "todo.txt-vim": { "branch": "master", "commit": "9bff4b6bf1bd5c8911f8adf115823408fb96265b" },
  "tokyonight.nvim": { "branch": "main", "commit": "c8ea87cd34b0267c44a67e90ff8f6e7d6af46ff9" },
  "tree-sitter-haskell": { "branch": "master", "commit": "0975ef72fc3c47b530309ca93937d7d143523628" },
  "trouble.nvim": { "branch": "main", "commit": "85bedb7eb7fa331a2ccbecb9202d8abba64d37b3" },
  "ts-comments.nvim": { "branch": "main", "commit": "872dcfa0418f4a33b7437fb4d9f4e89f2f000d74" },
  "vim-startuptime": { "branch": "master", "commit": "9aaa3c0880e63a8934ba58a430c6139225bba238" },
  "which-key.nvim": { "branch": "main", "commit": "5bf7a73fe851896d5ac26d313db849bf00f45b78" }
}
